<?xml version="1.0" standalone="no"?>
<!DOCTYPE svg PUBLIC "-//W3C//DTD SVG 1.1//EN" "http://www.w3.org/Graphics/SVG/1.1/DTD/svg11.dtd" >
<svg xmlns="http://www.w3.org/2000/svg">
<metadata>Generated by IcoMoon</metadata>
<defs>
<font id="icomoon" horiz-adv-x="1024">
<font-face units-per-em="1024" ascent="960" descent="-64" />
<missing-glyph horiz-adv-x="1024" />
<glyph unicode="&#x20;" horiz-adv-x="512" d="" />
<glyph unicode="&#xe900;" glyph-name="full-screen" d="M60 900h50.42v60h-110.42v-110.422h60v50.422zM0 777.278h60v-110.422h-60v110.422zM0 594.555h60v-110.422h-60v110.422zM730.863 960h110.416v-60h-110.416v60zM548.153 960h110.421v-60h-110.421v60zM365.43 960h110.42v-60h-110.42v60zM182.722 960h110.42v-60h-110.42v60zM913.584 960v-60h50.421v-50.422h60.001v110.422h-110.421zM963.999 777.278h60.001v-110.422h-60.001v110.422zM963.999 594.555h60.001v-110.422h-60.001v110.422zM963.999 411.861h60.001v-110.424h-60.001v110.424zM963.999 229.137h60.001v-110.421h-60.001v110.421zM964.005-4.005h-50.421v-60.001h110.421v110.421h-60.001v-50.421zM730.863-3.999h110.416v-60.001h-110.416v60.001zM548.153-3.999h110.421v-60.001h-110.421v60.001zM0-63.989h475.852v475.85h-475.852v-475.85zM60 351.863h355.852v-355.851h-355.852v355.851zM719.929 728.139h29.781l-161.058-161.056v29.78h-60v-132.206h132.209v60h-29.781l161.052 161.058v-29.782h60.001v132.206h-132.204v-60z" />
<glyph unicode="&#xe901;" glyph-name="checked-white" horiz-adv-x="1195" d="M0 409.882l409.106-409.891 785.561 784.788-112.777 111.221-672.784-671.999-297.888 297.886-111.218-112.004z" />
<glyph unicode="&#xe903;" glyph-name="arrow_down" d="M511.997 156.166c-18.353 0-36.702 7.008-50.694 20.993l-440.297 440.301c-28.009 28.008-28.009 73.42 0 101.417 27.997 27.997 73.399 27.997 101.41 0l389.581-389.603 389.583 389.589c28.006 27.997 73.404 27.997 101.402 0 28.023-27.997 28.023-73.408 0-101.417l-440.291-440.301c-13.999-13.988-32.349-20.979-50.694-20.979z" />
<glyph unicode="&#xe904;" glyph-name="arrow-down-header" d="M512 140.8l-512 614.4h1024l-512-614.4z" />
<glyph unicode="&#xe905;" glyph-name="cart" d="M341.333 842.667c0-42.667-149.333-42.667-170.667-42.667s-170.667 0-170.667 42.667c0 42.667 149.333 42.667 170.667 42.667s170.667 0 170.667-42.667zM456.533 249.6c-9.569-1.718-19.438-0.119-27.973 4.54-8.535 4.654-15.224 12.083-18.96 21.060l-123.733 341.333c-2.068 6.552-2.524 13.506-1.328 20.272s4.008 13.142 8.197 18.588c4.189 5.446 9.631 9.8 15.864 12.691s13.071 4.234 19.934 3.916l652.8-8.533c25.6 0 42.667-25.6 42.667-51.2l-55.467-256c0-12.8-17.067-25.6-34.133-29.867l-477.867-81.067v4.267zM482.133 100.267c0-11.486-2.262-22.858-6.658-33.473-4.395-10.61-10.838-20.252-18.96-28.376-8.122-8.118-17.765-14.564-28.376-18.961-10.612-4.392-21.986-6.656-33.472-6.656s-22.86 2.264-33.472 6.656c-10.611 4.398-20.254 10.843-28.376 18.961-8.122 8.124-14.565 17.766-18.96 28.376-4.396 10.615-6.658 21.988-6.658 33.473 0 23.199 9.215 45.443 25.618 61.85 16.403 16.401 38.651 25.617 61.848 25.617s45.445-9.216 61.848-25.617c16.403-16.407 25.618-38.65 25.618-61.85zM836.267 10.667c11.765 0 23.415 2.315 34.287 6.821 10.871 4.5 20.747 11.105 29.070 19.422 8.317 8.323 14.922 18.199 19.422 29.070 4.506 10.871 6.821 22.522 6.821 34.287s-2.315 23.415-6.821 34.287c-4.5 10.871-11.105 20.747-19.422 29.070-8.323 8.317-18.199 14.922-29.070 19.422-10.871 4.506-22.522 6.821-34.287 6.821-23.762 0-46.552-9.438-63.357-26.243s-26.243-39.595-26.243-63.357c0-23.762 9.438-46.552 26.243-63.357s39.595-26.243 63.357-26.243z" />
<glyph unicode="&#xe906;" glyph-name="checked" d="M0 415.328l350.662-351.335 673.338 672.675-96.666 95.332-576.672-575.999-255.332 255.331-95.33-96.004z" />
<glyph unicode="&#xe907;" glyph-name="close" d="M1024.017 874.666l-85.333 85.334-426.686-426.679-426.662 426.659-85.335-85.334 426.662-426.659-426.663-426.662 85.334-85.333 426.663 426.661 426.686-426.678 85.333 85.333-426.685 426.679 426.685 426.679z" />
<glyph unicode="&#xe908;" glyph-name="close-eye" d="M512 703.991c161.707 0 305.92-90.88 376.32-234.667-25.173-52.053-60.587-96.853-102.827-133.12l60.16-60.16c59.307 52.48 106.24 118.187 135.68 193.28-73.813 187.307-256 320-469.333 320-54.187 0-106.24-8.533-155.307-24.32l70.4-70.4c27.733 5.547 55.893 9.387 84.907 9.387zM466.347 655.352l88.32-88.32c24.32-10.667 43.947-30.293 54.613-54.613l88.32-88.32c3.413 14.507 5.973 29.867 5.973 45.653 0.427 105.813-85.76 191.573-191.573 191.573-15.787 0-30.72-2.133-45.653-5.973zM85.76 794.871l114.347-114.347c-69.547-54.613-124.587-127.147-157.44-211.2 73.813-187.307 256-320 469.333-320 64.853 0 127.147 12.373 184.32 34.987l145.92-145.92 60.16 60.16-756.48 756.907-60.16-60.587zM405.76 474.871l111.36-111.36c-1.707-0.427-3.413-0.853-5.12-0.853-58.88 0-106.667 47.787-106.667 106.667 0 2.133 0.427 3.413 0.427 5.547zM260.693 619.939l74.667-74.667c-9.813-23.467-15.36-49.067-15.36-75.947 0-105.813 86.187-192 192-192 26.88 0 52.48 5.547 75.52 15.36l41.813-41.813c-37.547-10.24-76.8-16.213-117.333-16.213-161.707 0-305.92 90.88-376.32 234.667 29.867 61.013 73.387 111.36 125.013 150.614z" />
<glyph unicode="&#xe909;" glyph-name="eye" d="M512 704c161.707 0 305.92-90.88 376.32-234.667-70.4-143.787-214.613-234.667-376.32-234.667s-305.92 90.88-376.32 234.667c70.4 143.787 214.613 234.667 376.32 234.667zM512 789.333c-213.333 0-395.52-132.693-469.333-320 73.813-187.307 256-320 469.333-320s395.52 132.693 469.333 320c-73.813 187.307-256 320-469.333 320zM512 576c58.88 0 106.667-47.787 106.667-106.667s-47.787-106.667-106.667-106.667c-58.88 0-106.667 47.787-106.667 106.667s47.787 106.667 106.667 106.667zM512 661.333c-105.813 0-192-86.187-192-192s86.187-192 192-192c105.813 0 192 86.187 192 192s-86.187 192-192 192z" />
<glyph unicode="&#xe90a;" glyph-name="lines" d="M73.143 886.857h877.714c40.396 0 73.143-32.747 73.143-73.143s-32.747-73.143-73.143-73.143h-877.714c-40.396 0-73.143 32.747-73.143 73.143s32.747 73.143 73.143 73.143zM73.143 521.143h877.714c40.396 0 73.143-32.747 73.143-73.143s-32.747-73.143-73.143-73.143h-877.714c-40.396 0-73.143 32.747-73.143 73.143s32.747 73.143 73.143 73.143zM73.143 155.429h877.714c40.396 0 73.143-32.747 73.143-73.143s-32.747-73.143-73.143-73.143h-877.714c-40.396 0-73.143 32.747-73.143 73.143s32.747 73.143 73.143 73.143z" />
<glyph unicode="&#xe90b;" glyph-name="profile" d="M742.4 714.24c0-143.36-102.4-256-230.4-256-122.88 0-230.4 112.64-230.4 256 0 138.24 102.4 245.76 230.4 245.76s230.4-102.4 230.4-245.76zM25.6 12.8c0-51.2 30.72-76.8 122.88-76.8h727.040c92.16 0 122.88 25.6 122.88 76.8 0 148.48-189.44 348.16-486.4 348.16s-486.4-204.8-486.4-348.16z" />
<glyph unicode="&#xe90c;" glyph-name="squares" d="M292.571 850.286c20.198 0 36.571-16.374 36.571-36.571v-146.286c0-20.198-16.374-36.571-36.571-36.571h-146.286c-20.198 0-36.571 16.374-36.571 36.571v146.286c0 20.198 16.374 36.571 36.571 36.571h146.286zM146.286 960c-80.791 0-146.286-65.494-146.286-146.286v-146.286c0-80.791 65.494-146.286 146.286-146.286h146.286c80.791 0 146.286 65.494 146.286 146.286v146.286c0 80.791-65.494 146.286-146.286 146.286h-146.286zM292.571 265.143c20.198 0 36.571-16.374 36.571-36.571v-146.286c0-20.195-16.374-36.571-36.571-36.571h-146.286c-20.198 0-36.571 16.377-36.571 36.571v146.286c0 20.198 16.374 36.571 36.571 36.571h146.286zM146.286 374.857c-80.791 0-146.286-65.494-146.286-146.286v-146.286c0-80.794 65.494-146.286 146.286-146.286h146.286c80.791 0 146.286 65.492 146.286 146.286v146.286c0 80.791-65.494 146.286-146.286 146.286h-146.286zM877.714 850.286c20.195 0 36.571-16.374 36.571-36.571v-146.286c0-20.198-16.377-36.571-36.571-36.571h-146.286c-20.198 0-36.571 16.374-36.571 36.571v146.286c0 20.198 16.374 36.571 36.571 36.571h146.286zM731.429 960c-80.791 0-146.286-65.494-146.286-146.286v-146.286c0-80.791 65.494-146.286 146.286-146.286h146.286c80.794 0 146.286 65.494 146.286 146.286v146.286c0 80.791-65.492 146.286-146.286 146.286h-146.286zM877.714 265.143c20.195 0 36.571-16.374 36.571-36.571v-146.286c0-20.195-16.377-36.571-36.571-36.571h-146.286c-20.198 0-36.571 16.377-36.571 36.571v146.286c0 20.198 16.374 36.571 36.571 36.571h146.286zM731.429 374.857c-80.791 0-146.286-65.494-146.286-146.286v-146.286c0-80.794 65.494-146.286 146.286-146.286h146.286c80.794 0 146.286 65.492 146.286 146.286v146.286c0 80.791-65.492 146.286-146.286 146.286h-146.286z" />
<glyph unicode="&#xe90d;" glyph-name="warning" d="M512 960c-282.774 0-512-229.234-512-512 0-282.782 229.226-512 512-512s512 229.218 512 512c0 282.766-229.226 512-512 512zM512 192c-35.348 0-64 28.64-64 64 0 35.344 28.652 64 64 64s64-28.656 64-64c0-35.36-28.652-64-64-64zM576 416h-128l-32 256c0 17.672 14.328 32 32 32h128c17.672 0 32-14.328 32-32l-32-256z" />
</font></defs></svg>