<?xml version="1.0" standalone="no"?>
<!DOCTYPE svg PUBLIC "-//W3C//DTD SVG 20010904//EN"
 "http://www.w3.org/TR/2001/REC-SVG-20010904/DTD/svg10.dtd">
<svg version="1.0" xmlns="http://www.w3.org/2000/svg"
 width="648.000000pt" height="648.000000pt" viewBox="0 0 648.000000 648.000000"
 preserveAspectRatio="xMidYMid meet">
<metadata>
Created by potrace 1.14, written by Peter Selinger 2001-2017
</metadata>
<g transform="translate(0.000000,648.000000) scale(0.100000,-0.100000)"
fill="#000000" stroke="none">
<path d="M5348 6475 c-2 -2 -50 -6 -108 -9 -58 -4 -132 -9 -165 -11 -126 -9
-342 -23 -450 -30 -38 -2 -70 -5 -70 -5 0 -1 -13 -4 -29 -6 -83 -14 -231 -121
-250 -182 -4 -12 -12 -22 -18 -22 -6 0 -8 -3 -5 -6 3 -4 2 -15 -4 -26 -6 -11
-13 -31 -15 -44 -2 -13 -6 -36 -9 -51 -2 -16 -8 -57 -11 -93 -4 -36 -8 -78
-10 -95 -2 -16 -6 -50 -9 -75 -2 -25 -7 -70 -11 -100 -3 -30 -7 -66 -9 -80 -5
-48 -16 -145 -20 -170 -2 -14 -6 -54 -10 -90 -3 -36 -8 -81 -11 -100 -2 -19
-6 -60 -9 -90 -2 -30 -7 -66 -9 -80 -3 -14 -7 -50 -10 -80 -5 -56 -11 -105
-21 -195 -8 -71 -12 -105 -20 -177 -3 -35 -8 -79 -11 -99 -2 -20 -7 -56 -9
-80 -9 -90 -17 -164 -20 -179 -2 -13 -10 -80 -21 -185 -2 -16 -5 -50 -8 -75
-3 -25 -8 -70 -11 -100 -3 -30 -8 -71 -10 -90 -2 -19 -7 -55 -9 -80 -3 -25 -8
-63 -10 -85 -7 -61 -18 -168 -19 -183 0 -14 -10 -7 -13 11 -2 10 -24 123 -60
302 -4 22 -9 45 -9 50 -1 6 -7 37 -14 70 -8 33 -19 92 -27 130 -7 39 -15 81
-18 95 -3 14 -7 36 -10 50 -10 58 -37 197 -42 215 -3 11 -7 34 -10 50 -2 17
-9 50 -14 75 -5 25 -12 56 -14 70 -3 14 -10 50 -16 80 -6 30 -13 65 -16 78 -2
12 -6 32 -8 45 -3 12 -10 47 -16 77 -6 30 -13 69 -16 85 -2 17 -7 37 -9 45 -2
8 -7 29 -10 45 -2 17 -7 41 -10 55 -3 14 -7 37 -10 52 -2 15 -6 35 -9 45 -6
20 -20 89 -29 146 -2 12 -7 36 -10 52 -4 17 -9 41 -11 55 -3 14 -10 50 -16 80
-6 30 -13 69 -16 85 -3 17 -9 49 -15 73 -5 23 -12 59 -15 80 -3 20 -7 44 -10
52 -4 8 -8 32 -10 53 -2 21 -9 47 -14 58 -6 10 -9 19 -7 19 4 0 -18 117 -26
145 -24 76 -93 160 -160 193 -91 45 -142 44 -350 -8 -93 -23 -176 -43 -185
-45 -10 -2 -107 -26 -217 -54 -110 -27 -240 -59 -290 -71 -142 -34 -212 -84
-260 -187 -40 -84 -40 -150 0 -318 3 -11 8 -33 10 -50 3 -16 12 -57 20 -90 8
-33 17 -71 20 -85 13 -64 26 -126 55 -255 18 -77 34 -149 36 -160 2 -11 6 -29
8 -41 2 -11 12 -51 21 -90 10 -38 19 -80 21 -94 1 -14 7 -40 13 -58 5 -18 10
-36 11 -40 2 -12 7 -38 45 -212 20 -91 39 -176 41 -190 3 -14 7 -33 10 -42 3
-10 7 -30 10 -45 3 -16 13 -64 24 -108 10 -44 21 -97 24 -119 4 -21 9 -43 13
-49 3 -5 1 -7 -4 -4 -13 8 -80 20 -113 20 -40 0 -82 -9 -300 -63 -206 -52
-225 -57 -257 -64 -65 -15 -85 -22 -143 -49 -77 -37 -187 -141 -197 -187 -3
-17 -8 -30 -12 -30 -10 0 -14 -36 -14 -110 0 -58 35 -196 73 -285 15 -36 42
-136 38 -140 -2 -2 -19 0 -38 4 -33 7 -105 6 -140 -2 -69 -15 -386 -130 -422
-153 -68 -43 -119 -106 -150 -184 -40 -102 -28 -240 32 -365 23 -47 150 -380
150 -392 0 -7 3 -13 8 -13 4 0 16 -24 26 -52 21 -60 270 -690 288 -728 6 -14
13 -33 15 -42 1 -10 12 -37 22 -60 11 -24 81 -197 155 -385 74 -188 144 -360
155 -382 51 -99 156 -173 301 -213 l85 -24 1495 1 1495 0 75 36 c95 45 173
121 224 218 55 105 67 152 81 311 3 36 7 85 10 110 3 25 8 72 11 105 3 33 7
74 9 90 1 17 6 64 10 105 3 41 8 89 10 105 2 17 7 66 10 110 3 44 8 87 10 95
2 8 6 47 10 85 3 39 8 84 10 100 4 28 13 108 20 185 9 96 15 151 20 181 2 19
7 63 10 99 7 78 12 127 20 200 4 30 9 75 11 100 2 25 6 63 9 85 3 22 8 67 10
100 3 33 7 74 10 90 2 17 7 57 10 90 3 33 8 74 10 90 2 17 7 62 10 100 3 39 8
86 11 106 2 20 7 59 10 85 3 27 7 63 9 79 2 17 6 57 10 90 3 33 8 71 10 85 2
14 7 52 10 85 4 33 8 76 10 95 3 19 7 62 11 95 3 33 8 71 10 85 2 14 7 50 9
80 3 30 8 75 11 100 4 25 7 59 9 75 1 17 5 53 9 80 3 28 8 73 11 100 3 28 7
66 10 85 3 19 8 60 11 90 3 30 7 66 9 80 3 22 8 67 20 180 2 14 6 54 10 90 4
36 9 76 10 90 1 14 3 25 4 25 1 0 4 23 6 50 2 28 6 66 9 85 2 19 7 62 11 95 3
33 8 75 11 94 2 18 7 59 10 90 3 31 7 67 10 81 2 14 7 52 10 85 9 98 12 128
18 175 20 158 18 140 31 265 4 33 8 71 10 85 1 14 6 54 10 90 4 36 9 74 11 85
13 60 12 204 -1 254 -27 103 -109 194 -214 240 -47 21 -74 25 -168 27 -61 1
-113 1 -115 -1z"/>
</g>
</svg>
